<svg xmlns="http://www.w3.org/2000/svg" width="321" height="223" viewBox="0 0 321 223">
    <g fill="none" fill-rule="evenodd" transform="translate(-1)">
        <circle cx="172.5" cy="111.5" r="111.5" fill="#F1F1F4" fill-rule="nonzero"/>
        <path fill="#A0A1CC" fill-rule="nonzero" d="M173.488 46.852c-35.697 0-64.636 28.939-64.636 64.636 0 35.698 28.939 64.637 64.636 64.637 35.698 0 64.637-28.94 64.637-64.637-.042-35.68-28.956-64.594-64.637-64.636zm0 118.5c-29.748 0-53.863-24.116-53.863-53.864 0-29.748 24.115-53.863 53.863-53.863s53.864 24.115 53.864 53.863c-.033 29.735-24.13 53.831-53.864 53.864z"/>
        <path fill="#6A6C98" d="M149.049 130.356l21.68-19.879V86.799a4.678 4.678 0 0 1 9.357 0v25.732a4.678 4.678 0 0 1-1.516 3.453l-23.2 21.263a4.725 4.725 0 0 1-6.611-.285 4.678 4.678 0 0 1 .29-6.606z"/>
        <path fill="#EC8A00" fill-rule="nonzero" stroke="#F1F1F4" stroke-width="6" d="M256.765 172.334a8.332 8.332 0 0 1-.248 8.099 8.201 8.201 0 0 1-7.036 4.005h-48.736a8.201 8.201 0 0 1-7.036-4.005 8.332 8.332 0 0 1-.248-8.1l24.37-47.096a8.206 8.206 0 0 1 7.283-4.448 8.207 8.207 0 0 1 7.283 4.45l24.368 47.095zm0 0zm-30.928-29.202a.345.345 0 1 1-.69 0v15.93a.345.345 0 0 1 .69 0v-15.93zm-.632 26.962a.726.726 0 0 0 .7-.758.859.859 0 0 0-.853-.827h-.016a.728.728 0 0 0-.716.754.86.86 0 0 0 .848.831h.037z"/>
        <g fill="#DBDBE5" fill-rule="nonzero" transform="rotate(90 121.205 200.705)">
            <rect width="12" height="61.436" x="30" y="241.563" rx="6"/>
            <rect width="12" height="61.436" x="30" y=".528" rx="6"/>
            <rect width="12" height="45.582" x="52" y="221.457" rx="6"/>
            <rect width="12" height="61.436" x="6" y="229.961" rx="6"/>
            <rect width="12" height="21.8" x="6" y="298.334" rx="6"/>
            <rect width="12" height="37.655" y="42.763" rx="6"/>
        </g>
    </g>
</svg>
