<svg xmlns="http://www.w3.org/2000/svg" width="74" height="32" viewBox="0 0 74 32">
    <g fill="none" fill-rule="evenodd">
        <path fill="#6C6BBD" d="M40.054 18.967h-6.452V7.372h6.452z"/>
        <path fill="#EB001B" d="M34.016 13.168a7.362 7.362 0 0 1 2.816-5.797 7.373 7.373 0 0 0-11.93 5.797 7.373 7.373 0 0 0 11.93 5.798 7.362 7.362 0 0 1-2.816-5.798"/>
        <path fill="#0099DF" d="M48.755 13.168a7.373 7.373 0 0 1-11.93 5.798 7.36 7.36 0 0 0 2.816-5.798 7.36 7.36 0 0 0-2.816-5.797 7.373 7.373 0 0 1 11.93 5.797"/>
        <g fill="#231F20" fill-rule="nonzero">
            <path d="M45.493 23.824c.143 0 .348.028.505.09l-.218.668a1.15 1.15 0 0 0-.444-.082c-.464 0-.696.3-.696.84v1.83h-.71v-3.263h.703v.396c.184-.287.45-.479.86-.479zm-2.624.731h-1.16v1.474c0 .328.115.547.47.547.185 0 .417-.062.628-.185l.205.607c-.225.157-.58.254-.887.254-.84 0-1.133-.451-1.133-1.21v-1.487h-.662v-.648h.662v-.99h.717v.99h1.16v.648zm-9.086.696c.075-.47.361-.792.867-.792.457 0 .75.287.826.792h-1.693zm2.43.287c-.007-1.017-.635-1.714-1.55-1.714-.955 0-1.624.697-1.624 1.714 0 1.037.696 1.713 1.673 1.713.491 0 .941-.123 1.337-.457l-.348-.526a1.552 1.552 0 0 1-.949.341c-.457 0-.873-.211-.976-.798H36.2c.007-.09.014-.178.014-.273zm3.12-.799c-.198-.123-.6-.28-1.017-.28-.39 0-.621.144-.621.383 0 .218.245.28.552.32l.335.048c.71.103 1.14.403 1.14.977 0 .62-.546 1.065-1.488 1.065-.533 0-1.024-.137-1.414-.424l.335-.553c.239.184.595.341 1.086.341.484 0 .744-.143.744-.396 0-.183-.185-.287-.574-.34l-.334-.048c-.73-.103-1.127-.43-1.127-.963 0-.648.533-1.045 1.359-1.045.519 0 .99.117 1.33.342l-.306.573zm8.755-.24c-.146 0-.282.026-.407.076a.977.977 0 0 0-.541.548 1.123 1.123 0 0 0-.078.426c0 .155.026.297.078.426a.977.977 0 0 0 .54.548c.126.051.262.076.408.076.146 0 .282-.025.407-.076a.976.976 0 0 0 .544-.548 1.12 1.12 0 0 0 .079-.426c0-.155-.026-.297-.079-.426a.976.976 0 0 0-.545-.548 1.072 1.072 0 0 0-.406-.076zm0-.675c.253 0 .487.044.703.133a1.66 1.66 0 0 1 .929.908c.09.21.134.438.134.684 0 .246-.045.474-.134.684a1.663 1.663 0 0 1-.929.91c-.216.087-.45.13-.703.13-.253 0-.488-.043-.703-.13a1.701 1.701 0 0 1-.558-.363 1.683 1.683 0 0 1-.368-.547 1.736 1.736 0 0 1-.133-.684c0-.246.044-.474.133-.685.09-.209.212-.391.368-.545.157-.154.342-.275.558-.362.215-.089.45-.133.703-.133zm-18.453 1.714c0-.574.376-1.045.99-1.045.587 0 .983.451.983 1.045 0 .594-.396 1.044-.983 1.044-.614 0-.99-.47-.99-1.044zm2.642 0v-1.631h-.71v.396c-.225-.294-.566-.479-1.03-.479-.915 0-1.632.717-1.632 1.714 0 .996.717 1.714 1.632 1.714.464 0 .805-.185 1.03-.479v.396h.71v-1.631zm-4 1.631v-2.047c0-.772-.491-1.29-1.283-1.298-.416-.007-.847.123-1.147.581-.225-.362-.58-.58-1.079-.58-.348 0-.69.102-.956.484v-.402h-.71v3.262h.717v-1.808c0-.567.315-.868.799-.868.471 0 .71.307.71.86v1.816h.717v-1.808c0-.567.328-.868.798-.868.486 0 .718.307.718.86v1.816h.716z"/>
            <path d="M49.866 25.52v.129h.119a.117.117 0 0 0 .064-.017.055.055 0 0 0 .025-.048.053.053 0 0 0-.025-.048.107.107 0 0 0-.064-.016h-.119zm.12-.09a.22.22 0 0 1 .143.041c.033.028.05.065.05.113a.13.13 0 0 1-.04.098.199.199 0 0 1-.114.048l.157.181h-.122l-.146-.18h-.048v.18h-.102v-.481h.222zm-.031.646a.41.41 0 0 0 .37-.246.412.412 0 0 0-.086-.444.386.386 0 0 0-.128-.085.38.38 0 0 0-.156-.031c-.056 0-.11.01-.159.031a.385.385 0 0 0-.215.214.39.39 0 0 0-.031.157c0 .057.01.11.031.158a.38.38 0 0 0 .215.215.395.395 0 0 0 .159.031zm0-.922a.51.51 0 0 1 .205.041.515.515 0 0 1 0 .955.527.527 0 0 1-.736-.478.509.509 0 0 1 .322-.477.527.527 0 0 1 .209-.041z"/>
        </g>
    </g>
</svg>
