<svg xmlns="http://www.w3.org/2000/svg" width="74" height="32" viewBox="0 0 74 32">
    <g fill="none" fill-rule="evenodd">
        <path fill="#231F20" fill-rule="nonzero" d="M21.848 27.435v-2.181c0-.823-.563-1.377-1.47-1.384a1.48 1.48 0 0 0-1.311.619 1.398 1.398 0 0 0-1.234-.62 1.265 1.265 0 0 0-1.092.518v-.436h-.812v3.484h.82v-1.93c0-.605.359-.925.914-.925s.813.328.813.918v1.937h.815v-1.93c0-.605.375-.925.914-.925.54 0 .82.328.82.918v1.937h.823zm12.14-3.481H32.66v-1.056h-.82v1.056h-.759v.692h.758v1.586c0 .809.336 1.29 1.297 1.29.358 0 .71-.092 1.015-.27l-.234-.648a1.582 1.582 0 0 1-.719.197c-.406 0-.54-.233-.54-.582v-1.573h1.328l.001-.692zm6.93-.087a1.12 1.12 0 0 0-.985.51v-.423h-.805v3.48h.813v-1.95c0-.582.265-.896.797-.896a1.41 1.41 0 0 1 .508.087l.25-.714a1.85 1.85 0 0 0-.579-.094zm-10.478.363a2.952 2.952 0 0 0-1.523-.363c-.946 0-1.56.423-1.56 1.113 0 .569.452.918 1.288 1.027l.382.05c.445.059.657.168.657.364 0 .27-.296.423-.852.423a2.091 2.091 0 0 1-1.248-.363l-.37.589c.474.308 1.041.467 1.618.452 1.078 0 1.704-.474 1.704-1.136 0-.612-.493-.932-1.304-1.04l-.383-.052c-.35-.043-.633-.109-.633-.341 0-.255.265-.407.711-.407.41.005.81.108 1.164.298l.35-.614zm21.762-.363a1.12 1.12 0 0 0-.984.51v-.423h-.805v3.48h.812v-1.95c0-.582.266-.896.797-.896a1.41 1.41 0 0 1 .509.087l.25-.714a1.85 1.85 0 0 0-.58-.094zm-10.464 1.827c0 1.056.789 1.828 1.991 1.828a2.05 2.05 0 0 0 1.343-.416l-.39-.612c-.28.2-.623.309-.976.312-.649 0-1.125-.444-1.125-1.113 0-.67.478-1.107 1.125-1.114.353.004.695.113.976.313l.39-.612a2.05 2.05 0 0 0-1.343-.416c-1.202 0-1.991.772-1.991 1.827v.003zm7.608 0V23.95h-.813v.424a1.46 1.46 0 0 0-1.179-.51c-1.046 0-1.872.764-1.872 1.827s.82 1.827 1.872 1.827a1.46 1.46 0 0 0 1.18-.51v.422h.812v-1.735zm-3.023 0c0-.612.43-1.114 1.133-1.114.672 0 1.124.482 1.124 1.114 0 .633-.452 1.114-1.124 1.114-.704 0-1.133-.503-1.133-1.114zm-9.804-1.827c-1.092 0-1.86.743-1.86 1.827 0 1.107.797 1.828 1.914 1.828a2.376 2.376 0 0 0 1.532-.489l-.398-.561c-.31.231-.694.36-1.092.364-.524 0-1-.226-1.116-.852h2.773c.008-.095.015-.19.015-.291 0-1.085-.726-1.828-1.773-1.828l.005.002zm-.016.677c.524 0 .86.305.945.845h-1.935c.085-.503.413-.845.992-.845h-.002zm20.378 1.15v-3.139h-.813v1.82a1.46 1.46 0 0 0-1.179-.51c-1.046 0-1.871.765-1.871 1.828 0 1.063.82 1.827 1.871 1.827a1.46 1.46 0 0 0 1.18-.51v.422h.812v-1.738zm.95 1.42a.254.254 0 0 1 .17.065c.022.02.04.043.051.07a.203.203 0 0 1 0 .171.224.224 0 0 1-.051.07.251.251 0 0 1-.17.065.243.243 0 0 1-.225-.135.205.205 0 0 1 0-.172.23.23 0 0 1 .128-.117.26.26 0 0 1 .1-.018h-.003zm0 .392a.187.187 0 0 0 .13-.05.165.165 0 0 0 0-.244.185.185 0 0 0-.13-.05.197.197 0 0 0-.073.014.176.176 0 0 0-.11.125.165.165 0 0 0 .05.155.196.196 0 0 0 .136.05h-.003zm.014-.276a.105.105 0 0 1 .065.017c.016.012.025.03.024.048a.053.053 0 0 1-.019.042.09.09 0 0 1-.051.02l.071.078h-.056l-.067-.078h-.022v.078h-.046v-.204l.101-.001zm-.055.037v.056h.055c.01.002.02.002.03 0a.023.023 0 0 0 .01-.02.023.023 0 0 0-.01-.021.057.057 0 0 0-.03 0l-.055-.015zm-3.929-1.573c0-.612.43-1.114 1.133-1.114.672 0 1.124.482 1.124 1.114 0 .633-.452 1.114-1.124 1.114-.704 0-1.133-.503-1.133-1.114zm-27.435 0V23.95h-.813v.424a1.46 1.46 0 0 0-1.174-.506c-1.047 0-1.872.764-1.872 1.827s.82 1.828 1.872 1.828a1.46 1.46 0 0 0 1.179-.51v.421h.812l-.004-1.739zm-3.023 0c0-.612.429-1.114 1.132-1.114.672 0 1.125.482 1.125 1.114 0 .633-.453 1.114-1.125 1.114-.703 0-1.132-.502-1.132-1.114z"/>
        <path fill="#FF5F00" d="M33.767 7.867h6.05v10.956h-6.05z"/>
        <path fill="#EB001B" d="M34.151 13.348a6.975 6.975 0 0 1 2.641-5.477 6.878 6.878 0 0 0-9.353.751 7.006 7.006 0 0 0 0 9.454 6.878 6.878 0 0 0 9.353.751 6.975 6.975 0 0 1-2.64-5.479z"/>
        <path fill="#F79E1B" d="M47.981 13.348a6.972 6.972 0 0 1-3.893 6.267 6.873 6.873 0 0 1-7.296-.79 6.987 6.987 0 0 0 2.643-5.478 6.987 6.987 0 0 0-2.643-5.478 6.873 6.873 0 0 1 7.297-.79 6.972 6.972 0 0 1 3.892 6.27z"/>
    </g>
</svg>
