<svg xmlns="http://www.w3.org/2000/svg" width="74" height="32" viewBox="0 0 74 32">
    <defs>
        <linearGradient id="a" x1="0%" y1="50%" y2="50%">
            <stop offset="0%" stop-color="#1D1C45"/>
            <stop offset="100%" stop-color="#174489"/>
        </linearGradient>
    </defs>
    <g fill="none" fill-rule="evenodd">
        <path fill="#FFF" fill-rule="nonzero" stroke="#19317D" d="M16.898 8.537h41.203v14.926H16.898z"/>
        <path fill="#19317D" fill-rule="nonzero" d="M35.509 8.037h23.092v15.926H35.509z"/>
        <path fill="url(#a)" d="M15.153 4.019l-3.44 8.471H9.468L7.775 5.73c-.103-.417-.192-.57-.504-.745-.51-.286-1.353-.554-2.095-.72l.05-.246h3.613c.46 0 .875.316.98.863l.894 4.903 2.21-5.766h2.23z" transform="translate(16 8)"/>
        <path fill="#FFF" d="M39.613 12.815h2.216c1.384 0 2.199.806 2.199 2.137 0 1.349-.815 2.146-2.199 2.146h-1.287v1.848c0 .088-.044.132-.123.132h-.806c-.078 0-.122-.044-.122-.132v-6c0-.087.044-.131.122-.131zm.929 3.302h1.165c.85 0 1.244-.368 1.244-1.165 0-.788-.395-1.156-1.244-1.156h-1.165v2.321zm4.791 2.96h-.858c-.097 0-.132-.052-.105-.148l2.102-6.01c.026-.07.07-.104.14-.104h.999c.07 0 .113.035.14.105l2.102 6.009c.026.096-.018.149-.105.149h-.859c-.07 0-.131-.035-.149-.105l-.429-1.323h-2.4l-.429 1.323a.15.15 0 0 1-.149.105zm1.76-5.106l-.884 2.724h1.804l-.884-2.724h-.035zm5.817 5.107h-.806c-.079 0-.131-.044-.131-.132v-2.18l-2.015-3.793c-.044-.088-.009-.158.096-.158h.92c.061 0 .114.026.14.096l1.393 2.882 1.384-2.882c.026-.07.087-.096.149-.096h.92c.096 0 .13.07.087.158l-2.006 3.81v2.163c0 .088-.044.132-.131.132z"/>
    </g>
</svg>
